# Blender v2.82 (sub 7) OBJ File: ''
# www.blender.org
mtllib Console.mtl
o Cube
v 1.000000 1.546667 -0.312197
v 1.000000 -1.546667 -0.312197
v 1.000000 1.546667 0.312197
v 1.000000 -1.546667 0.312197
v -1.000000 1.546667 -0.312197
v -1.000000 -1.546667 -0.312197
v -1.000000 1.546667 0.312197
v -1.000000 -1.546667 0.312197
vt 0.234792 0.493372
vt 0.233594 0.243374
vt 0.370428 0.242719
vt 0.371626 0.492716
vt 0.372823 0.996619
vt 0.626587 0.495200
vt 0.627784 0.999103
vt -0.118288 0.998972
vt -0.119486 0.495069
vt 0.006497 0.494465
vt 0.007695 0.998369
vt 0.237187 1.247272
vt 0.235989 0.997275
vt 0.374021 1.246616
vn 0.0000 1.0000 0.0000
vn 0.0000 0.0000 1.0000
vn -1.0000 0.0000 0.0000
vn 0.0000 -1.0000 0.0000
vn 1.0000 0.0000 0.0000
vn 0.0000 0.0000 -1.0000
usemtl Material
s off
f 1/1/1 5/2/1 7/3/1 3/4/1
f 4/5/2 3/4/2 7/6/2 8/7/2
f 8/8/3 7/9/3 5/10/3 6/11/3
f 6/12/4 2/13/4 4/5/4 8/14/4
f 2/13/5 1/1/5 3/4/5 4/5/5
f 6/11/6 5/10/6 1/1/6 2/13/6
